Regional Analysis Using R | Ka Ming Fung, Ph.D.
…
# concat the regional information back to the data frame
X.df = X.df %>% left_join(X.lonlat)

## Joining, by = c("lon", "lat")

Step 3: Calculating e.g., regional average

X.df %>% 
  group_by(region$NAME_1) %>% 
  summarize(value = mean(value, na.rm = T))

## `summarise()` ungrouping output (override with `.groups` argument)

## # A tibble: 26 x 2
##    `region$NAME_1` value
##    <chr>           <dbl>
##  1 Alaska          0.385
##  2 Arizona         0.291
##  3 Arkansas        0.173
##  4 Colorado        0.298
##  5 Georgia         0.656
##  6 Idaho           0.874
##  7 Illinois        0.337
##  8 Kansas          0.172
##  9 Kentucky        0.579
## 10 Michigan        0.506
## # … with 16 more rows
…
